Alabama,4874747,14202
Alaska,739795,-1727
Arizona,7016270,107628
Arkansas,3004279,16048
California,39536653,240177
Colorado,5607154,77049
Connecticut,3588184,499
Delaware,961939,9241
District of Columbia,693972,9636
Florida,20984400,327811
Georgia,10429379,115759
Hawaii,1427538,-1145
Idaho,1716943,36917
Illinois,12802023,-33703
Indiana,6666818,32811
Iowa,3145711,14842
Kansas,2913123,5392
Kentucky,4454189,18076
Louisiana,4684333,-1824
Maine,1335907,5675
Maryland,6052177,27425
Massachusetts,6859819,36098
Michigan,9962311,28866
Minnesota,5576606,51556
Mississippi,2984100,-1315
Missouri,6113532,22356
Montana,1050493,11837
Nebraska,1920076,12473
Nevada,2998039,58785
New Hampshire,1342795,7780
New Jersey,9005644,27228
New Mexico,2088070,2638
New York,19849399,13113
North Carolina,10273419,116730
North Dakota,755393,-155
Ohio,11658609,36055
Oklahoma,3930864,9657
Oregon,4142776,56787
Pennsylvania,12805537,18452
Rhode Island,1059639,2073
South Carolina,5024369,64547
South Dakota,869666,8124
Tennessee,6715984,66580
Texas,28304596,399734
Utah,3101833,57512
Vermont,623657,303
Virginia,8470020,55640
Washington,7405743,124809
West Virginia,1815857,-12780
Wisconsin,5795483,22566
Wyoming,579315,-5595
Puerto Rico,3337177,-69343
